[
{"count": 37, "next": "https://khodro45.com/api/v2/car_listing/?ordering=-created_time&page=2", "previous": null, "results": [{"slug": "SQSLF8", "guaranteed": true, "immediate_delivery": false, "price_type": 3, "price": 310000000, "discounted_price": null, "views": 129, "car_properties": {"brand": {"title": "رنو", "title_en": "Renault", "url_slug": "renault"}, "model": {"title": "تندر90", "title_en": "Tondar 90", "url_slug": "renaulttondar90"}, "option": "E2", "trim": "E2", "year": "1393"}, "city": {"title": "تهران", "title_en": "Tehran"}, "branch": null, "car_specifications": {"document": "تک برگ", "klm": "85872", "is_klm_matched": "خیر"}, "image": {"id": 1586066, "question_id": null, "file": "https://khodro45.com/media/CACHE/images/images/f3758a64-b81/4ae2084c40042f1c1748a1340e4f949c.jpg", "file_high": "https://khodro45.com/media/images/f3758a64-b81.jpg"}, "identifier": 15535}, {"slug": "RT2P4O", "guaranteed": true, "immediate_delivery": false, "price_type": 3, "price": 175000000, "discounted_price": null, "views": 240, "car_properties": {"brand": {"title": "تیبا", "title_en": "Tiba", "url_slug": "tiba"}, "model": {"title": "صندوق دار", "title_en": "Sedan", "url_slug": "tibasedan"}, "option": "SX", "trim": "SX", "year": "1399"}, "city": {"title": "تهران", "title_en": "Tehran"}, "branch": null, "car_specifications": {"document": "دوبرگ", "klm": "28559", "is_klm_matched": "خیر"}, "image": {"id": 1552658, "question_id": null, "file": "https://khodro45.com/media/CACHE/images/images/dd57f318-944/4f318563d03f2ac9b05e8b489d642665.jpg", "file_high": "https://khodro45.com/media/images/dd57f318-944.jpg"}, "identifier": 15534}, {"slug": "NEOVVX", "guaranteed": true, "immediate_delivery": false, "price_type": 3, "price": 338000000, "discounted_price": null, "views": 1564, "car_properties": {"brand": {"title": "برلیانس", "title_en": "Brilliance", "url_slug": "brilliance"}, "model": {"title": "H230", "title_en": "H230", "url_slug": "brillianceh230"}, "option": "دنده ای", "trim": "دنده ای", "year": "1399"}, "city": {"title": "تهران", "title_en": "Tehran"}, "branch": null, "car_specifications": {"document": "دوبرگ", "klm": "11369", "is_klm_matched": "بلی"}, "image": {"id": 1580084, "question_id": null, "file": "https://khodro45.com/media/CACHE/images/images/c9993458-13e/a438a2efa4436a9e88c08115b18ac75a.jpg", "file_high": "https://khodro45.com/media/images/c9993458-13e.jpg"}, "identifier": 15533}, {"slug": "SKMQAG", "guaranteed": true, "immediate_delivery": false, "price_type": 4, "price": 235000000, "discounted_price": null, "views": 2612, "car_properties": {"brand": {"title": "سمند", "title_en": "Samand", "url_slug": "samand"}, "model": {"title": "LX", "title_en": "EF7", "url_slug": "samandef7"}, "option": "ساده", "trim": "ساده", "year": "1399"}, "city": {"title": "تهران", "title_en": "Tehran"}, "branch": null, "car_specifications": {"document": "تک برگ", "klm": "12519", "is_klm_matched": "بلی"}, "image": {"id": 1532568, "question_id": null, "file": "https://khodro45.com/media/CACHE/images/images/8644763f-9c3/ea303ace9053d0c67d8e6df011963cbb.jpg", "file_high": "https://khodro45.com/media/images/8644763f-9c3.jpg"}, "identifier": 15532}, {"slug": "R1MO8H", "guaranteed": true, "immediate_delivery": false, "price_type": 3, "price": 215000000, "discounted_price": null, "views": 786, "car_properties": {"brand": {"title": "سمند", "title_en": "Samand", "url_slug": "samand"}, "model": {"title": "LX", "title_en": "EF7", "url_slug": "samandef7"}, "option": "EF7", "trim": "EF7", "year": "1396"}, "city": {"title": "تهران", "title_en": "Tehran"}, "branch": null, "car_specifications": {"document": "تک برگ", "klm": "174162", "is_klm_matched": "بلی"}, "image": {"id": 1583798, "question_id": null, "file": "https://khodro45.com/media/CACHE/images/images/fb724d0b-29f/e9a9d58c66849e93eaed128696d1d160.jpg", "file_high": "https://khodro45.com/media/images/fb724d0b-29f.jpg"}, "identifier": 15531}, {"slug": "NROGGW", "guaranteed": true, "immediate_delivery": false, "price_type": 2, "price": 398000000, "discounted_price": null, "views": 1143, "car_properties": {"brand": {"title": "پژو", "title_en": "Peugeot", "url_slug": "peugeot"}, "model": {"title": "207", "title_en": "207", "url_slug": "peugeot207"}, "option": "پانوراما دنده‌ای", "trim": "پانوراما دنده‌ای", "year": "1401"}, "city": {"title": "تهران", "title_en": "Tehran"}, "branch": null, "car_specifications": {"document": "تک برگ", "klm": "7297", "is_klm_matched": "بلی"}, "image": {"id": 1580289, "question_id": null, "file": "https://khodro45.com/media/CACHE/images/images/66acb097-0b3/3e8af80e81b0fb6b0e97adf39d460125.jpg", "file_high": "https://khodro45.com/media/images/66acb097-0b3.jpg"}, "identifier": 15530}, {"slug": "Q19LM1", "guaranteed": true, "immediate_delivery": false, "price_type": 4, "price": 328000000, "discounted_price": null, "views": 1969, "car_properties": {"brand": {"title": "سمند", "title_en": "Samand", "url_slug": "samand"}, "model": {"title": "LX", "title_en": "EF7", "url_slug": "samandef7"}, "option": "EF7 دوگانه سوز", "trim": "EF7 دوگانه سوز", "year": "1399"}, "city": {"title": "کرج", "title_en": "Karaj"}, "branch": null, "car_specifications": {"document": "تک برگ", "klm": "35018", "is_klm_matched": "خیر"}, "image": {"id": 1556955, "question_id": null, "file": "https://khodro45.com/media/CACHE/images/images/39712c0b-5b7/9107877390994248c960d0d05fef08f7.jpg", "file_high": "https://khodro45.com/media/images/39712c0b-5b7.jpg"}, "identifier": 15529}, {"slug": "TB3N4R", "guaranteed": true, "immediate_delivery": false, "price_type": 3, "price": 790000000, "discounted_price": null, "views": 2606, "car_properties": {"brand": {"title": "سوزوکی", "title_en": "Suzuki", "url_slug": "suzuki"}, "model": {"title": "گراند ویتارا (مونتاژ)", "title_en": "Grand Vitara-Assembled", "url_slug": "suzukigrandvitaraassembled"}, "option": "2.4 لیتر اتوماتیک", "trim": "2.4 لیتر اتوماتیک", "year": "1391"}, "city": {"title": "کرج", "title_en": "Karaj"}, "branch": null, "car_specifications": {"document": "دوبرگ", "klm": "109385", "is_klm_matched": "بلی"}, "image": {"id": 1562858, "question_id": null, "file": "https://khodro45.com/media/CACHE/images/images/71cdf9b7-d7d/cb6e42f1c1a7e0bd43d6036cf696c97b.jpg", "file_high": "https://khodro45.com/media/images/71cdf9b7-d7d.jpg"}, "identifier": 15528}, {"slug": "H3HKUY", "guaranteed": true, "immediate_delivery": false, "price_type": 3, "price": 760000000, "discounted_price": null, "views": 1446, "car_properties": {"brand": {"title": "ام جی", "title_en": "MG", "url_slug": "mg"}, "model": {"title": "6", "title_en": "6", "url_slug": "mg6"}, "option": "GT نیو فیس", "trim": "GT نیو فیس", "year": "2015"}, "city": {"title": "کرج", "title_en": "Karaj"}, "branch": null, "car_specifications": {"document": "سه برگ", "klm": "90217", "is_klm_matched": "بلی"}, "image": {"id": 1565024, "question_id": null, "file": "https://khodro45.com/media/CACHE/images/images/86c65de2-183/e74ca420485f0986775e49b96dce6fa1.jpg", "file_high": "https://khodro45.com/media/images/86c65de2-183.jpg"}, "identifier": 15527}, {"slug": "VGF3SC", "guaranteed": true, "immediate_delivery": false, "price_type": 2, "price": 1180000000, "discounted_price": null, "views": 1898, "car_properties": {"brand": {"title": "تویوتا", "title_en": "Toyota", "url_slug": "toyota"}, "model": {"title": "پریوس", "title_en": "Prius", "url_slug": "toyotaprius"}, "option": "تیپ B", "trim": "تیپ B", "year": "2017"}, "city": {"title": "تهران", "title_en": "Tehran"}, "branch": null, "car_specifications": {"document": "سه برگ", "klm": "134298", "is_klm_matched": "بلی"}, "image": {"id": 1571164, "question_id": null, "file": "https://khodro45.com/media/CACHE/images/images/ac4bf47e-599/83ea831af2549e062bcee9768c9015c3.jpg", "file_high": "https://khodro45.com/media/images/ac4bf47e-599.jpg"}, "identifier": 15526}]}
]